Analysis & Synthesis report for Actividad1
Tue Nov 27 15:12:42 2018
Quartus Prime Version 18.1.0 Build 625 09/12/2018 SJ Lite Edition


---------------------
; Table of Contents ;
---------------------
  1. Legal Notice
  2. Analysis & Synthesis Summary
  3. Analysis & Synthesis Settings
  4. Parallel Compilation
  5. Analysis & Synthesis Source Files Read
  6. Analysis & Synthesis Resource Usage Summary
  7. Analysis & Synthesis Resource Utilization by Entity
  8. Analysis & Synthesis IP Cores Summary
  9. General Register Statistics
 10. Parameter Settings for User Entity Instance: multiplexor:m1|lpm_mux:LPM_MUX_component
 11. Port Connectivity Checks: "temporizador:t1"
 12. Post-Synthesis Netlist Statistics for Top Partition
 13. Elapsed Time Per Partition
 14. Analysis & Synthesis Messages



----------------
; Legal Notice ;
----------------
Copyright (C) 2018  Intel Corporation. All rights reserved.
Your use of Intel Corporation's design tools, logic functions 
and other software and tools, and its AMPP partner logic 
functions, and any output files from any of the foregoing 
(including device programming or simulation files), and any 
associated documentation or information are expressly subject 
to the terms and conditions of the Intel Program License 
Subscription Agreement, the Intel Quartus Prime License Agreement,
the Intel FPGA IP License Agreement, or other applicable license
agreement, including, without limitation, that your use is for
the sole purpose of programming logic devices manufactured by
Intel and sold by Intel or its authorized distributors.  Please
refer to the applicable agreement for further details.



+-------------------------------------------------------------------------------+
; Analysis & Synthesis Summary                                                  ;
+---------------------------------+---------------------------------------------+
; Analysis & Synthesis Status     ; Successful - Tue Nov 27 15:12:42 2018       ;
; Quartus Prime Version           ; 18.1.0 Build 625 09/12/2018 SJ Lite Edition ;
; Revision Name                   ; Actividad1                                  ;
; Top-level Entity Name           ; Actividad1                                  ;
; Family                          ; Cyclone V                                   ;
; Logic utilization (in ALMs)     ; N/A                                         ;
; Total registers                 ; 32                                          ;
; Total pins                      ; 24                                          ;
; Total virtual pins              ; 0                                           ;
; Total block memory bits         ; 0                                           ;
; Total DSP Blocks                ; 0                                           ;
; Total HSSI RX PCSs              ; 0                                           ;
; Total HSSI PMA RX Deserializers ; 0                                           ;
; Total HSSI TX PCSs              ; 0                                           ;
; Total HSSI PMA TX Serializers   ; 0                                           ;
; Total PLLs                      ; 0                                           ;
; Total DLLs                      ; 0                                           ;
+---------------------------------+---------------------------------------------+


+---------------------------------------------------------------------------------------------------------------------------+
; Analysis & Synthesis Settings                                                                                             ;
+---------------------------------------------------------------------------------+--------------------+--------------------+
; Option                                                                          ; Setting            ; Default Value      ;
+---------------------------------------------------------------------------------+--------------------+--------------------+
; Device                                                                          ; 5CSEMA5F31C6       ;                    ;
; Top-level entity name                                                           ; Actividad1         ; Actividad1         ;
; Family name                                                                     ; Cyclone V          ; Cyclone V          ;
; Use smart compilation                                                           ; Off                ; Off                ;
; Enable parallel Assembler and Timing Analyzer during compilation                ; On                 ; On                 ;
; Enable compact report table                                                     ; Off                ; Off                ;
; Restructure Multiplexers                                                        ; Auto               ; Auto               ;
; MLAB Add Timing Constraints For Mixed-Port Feed-Through Mode Setting Don't Care ; Off                ; Off                ;
; Create Debugging Nodes for IP Cores                                             ; Off                ; Off                ;
; Preserve fewer node names                                                       ; On                 ; On                 ;
; Intel FPGA IP Evaluation Mode                                                   ; Enable             ; Enable             ;
; Verilog Version                                                                 ; Verilog_2001       ; Verilog_2001       ;
; VHDL Version                                                                    ; VHDL_1993          ; VHDL_1993          ;
; State Machine Processing                                                        ; Auto               ; Auto               ;
; Safe State Machine                                                              ; Off                ; Off                ;
; Extract Verilog State Machines                                                  ; On                 ; On                 ;
; Extract VHDL State Machines                                                     ; On                 ; On                 ;
; Ignore Verilog initial constructs                                               ; Off                ; Off                ;
; Iteration limit for constant Verilog loops                                      ; 5000               ; 5000               ;
; Iteration limit for non-constant Verilog loops                                  ; 250                ; 250                ;
; Add Pass-Through Logic to Inferred RAMs                                         ; On                 ; On                 ;
; Infer RAMs from Raw Logic                                                       ; On                 ; On                 ;
; Parallel Synthesis                                                              ; On                 ; On                 ;
; DSP Block Balancing                                                             ; Auto               ; Auto               ;
; NOT Gate Push-Back                                                              ; On                 ; On                 ;
; Power-Up Don't Care                                                             ; On                 ; On                 ;
; Remove Redundant Logic Cells                                                    ; Off                ; Off                ;
; Remove Duplicate Registers                                                      ; On                 ; On                 ;
; Ignore CARRY Buffers                                                            ; Off                ; Off                ;
; Ignore CASCADE Buffers                                                          ; Off                ; Off                ;
; Ignore GLOBAL Buffers                                                           ; Off                ; Off                ;
; Ignore ROW GLOBAL Buffers                                                       ; Off                ; Off                ;
; Ignore LCELL Buffers                                                            ; Off                ; Off                ;
; Ignore SOFT Buffers                                                             ; On                 ; On                 ;
; Limit AHDL Integers to 32 Bits                                                  ; Off                ; Off                ;
; Optimization Technique                                                          ; Balanced           ; Balanced           ;
; Carry Chain Length                                                              ; 70                 ; 70                 ;
; Auto Carry Chains                                                               ; On                 ; On                 ;
; Auto Open-Drain Pins                                                            ; On                 ; On                 ;
; Perform WYSIWYG Primitive Resynthesis                                           ; Off                ; Off                ;
; Auto ROM Replacement                                                            ; On                 ; On                 ;
; Auto RAM Replacement                                                            ; On                 ; On                 ;
; Auto DSP Block Replacement                                                      ; On                 ; On                 ;
; Auto Shift Register Replacement                                                 ; Auto               ; Auto               ;
; Allow Shift Register Merging across Hierarchies                                 ; Auto               ; Auto               ;
; Auto Clock Enable Replacement                                                   ; On                 ; On                 ;
; Strict RAM Replacement                                                          ; Off                ; Off                ;
; Allow Synchronous Control Signals                                               ; On                 ; On                 ;
; Force Use of Synchronous Clear Signals                                          ; Off                ; Off                ;
; Auto Resource Sharing                                                           ; Off                ; Off                ;
; Allow Any RAM Size For Recognition                                              ; Off                ; Off                ;
; Allow Any ROM Size For Recognition                                              ; Off                ; Off                ;
; Allow Any Shift Register Size For Recognition                                   ; Off                ; Off                ;
; Use LogicLock Constraints during Resource Balancing                             ; On                 ; On                 ;
; Ignore translate_off and synthesis_off directives                               ; Off                ; Off                ;
; Timing-Driven Synthesis                                                         ; On                 ; On                 ;
; Report Parameter Settings                                                       ; On                 ; On                 ;
; Report Source Assignments                                                       ; On                 ; On                 ;
; Report Connectivity Checks                                                      ; On                 ; On                 ;
; Ignore Maximum Fan-Out Assignments                                              ; Off                ; Off                ;
; Synchronization Register Chain Length                                           ; 3                  ; 3                  ;
; Power Optimization During Synthesis                                             ; Normal compilation ; Normal compilation ;
; HDL message level                                                               ; Level2             ; Level2             ;
; Suppress Register Optimization Related Messages                                 ; Off                ; Off                ;
; Number of Removed Registers Reported in Synthesis Report                        ; 5000               ; 5000               ;
; Number of Swept Nodes Reported in Synthesis Report                              ; 5000               ; 5000               ;
; Number of Inverted Registers Reported in Synthesis Report                       ; 100                ; 100                ;
; Clock MUX Protection                                                            ; On                 ; On                 ;
; Auto Gated Clock Conversion                                                     ; Off                ; Off                ;
; Block Design Naming                                                             ; Auto               ; Auto               ;
; SDC constraint protection                                                       ; Off                ; Off                ;
; Synthesis Effort                                                                ; Auto               ; Auto               ;
; Shift Register Replacement - Allow Asynchronous Clear Signal                    ; On                 ; On                 ;
; Pre-Mapping Resynthesis Optimization                                            ; Off                ; Off                ;
; Analysis & Synthesis Message Level                                              ; Medium             ; Medium             ;
; Disable Register Merging Across Hierarchies                                     ; Auto               ; Auto               ;
; Resource Aware Inference For Block RAM                                          ; On                 ; On                 ;
; Automatic Parallel Synthesis                                                    ; On                 ; On                 ;
; Partial Reconfiguration Bitstream ID                                            ; Off                ; Off                ;
+---------------------------------------------------------------------------------+--------------------+--------------------+


+------------------------------------------+
; Parallel Compilation                     ;
+----------------------------+-------------+
; Processors                 ; Number      ;
+----------------------------+-------------+
; Number detected on machine ; 4           ;
; Maximum allowed            ; 2           ;
;                            ;             ;
; Average used               ; 1.00        ;
; Maximum used               ; 2           ;
;                            ;             ;
; Usage by Processor         ; % Time Used ;
;     Processor 1            ; 100.0%      ;
;     Processor 2            ;   0.0%      ;
+----------------------------+-------------+


+------------------------------------------------------------------------------------------------------------------------------------------------------------------------------+
; Analysis & Synthesis Source Files Read                                                                                                                                       ;
+----------------------------------+-----------------+------------------------------+--------------------------------------------------------------------------------+---------+
; File Name with User-Entered Path ; Used in Netlist ; File Type                    ; File Name with Absolute Path                                                   ; Library ;
+----------------------------------+-----------------+------------------------------+--------------------------------------------------------------------------------+---------+
; Temporizador.v                   ; yes             ; User Verilog HDL File        ; D:/Kinacho/Embebidos/Repositorio/Laboratorio-4/Actividad_1/Temporizador.v      ;         ;
; multiplexor.v                    ; yes             ; User Wizard-Generated File   ; D:/Kinacho/Embebidos/Repositorio/Laboratorio-4/Actividad_1/multiplexor.v       ;         ;
; actividad1.v                     ; yes             ; Auto-Found Verilog HDL File  ; D:/Kinacho/Embebidos/Repositorio/Laboratorio-4/Actividad_1/actividad1.v        ;         ;
; lpm_mux.tdf                      ; yes             ; Megafunction                 ; d:/programs/intelfpga_lite/18.1/quartus/libraries/megafunctions/lpm_mux.tdf    ;         ;
; aglobal181.inc                   ; yes             ; Megafunction                 ; d:/programs/intelfpga_lite/18.1/quartus/libraries/megafunctions/aglobal181.inc ;         ;
; muxlut.inc                       ; yes             ; Megafunction                 ; d:/programs/intelfpga_lite/18.1/quartus/libraries/megafunctions/muxlut.inc     ;         ;
; bypassff.inc                     ; yes             ; Megafunction                 ; d:/programs/intelfpga_lite/18.1/quartus/libraries/megafunctions/bypassff.inc   ;         ;
; altshift.inc                     ; yes             ; Megafunction                 ; d:/programs/intelfpga_lite/18.1/quartus/libraries/megafunctions/altshift.inc   ;         ;
; db/mux_sjc.tdf                   ; yes             ; Auto-Generated Megafunction  ; D:/Kinacho/Embebidos/Repositorio/Laboratorio-4/Actividad_1/db/mux_sjc.tdf      ;         ;
+----------------------------------+-----------------+------------------------------+--------------------------------------------------------------------------------+---------+


+--------------------------------------------------------------+
; Analysis & Synthesis Resource Usage Summary                  ;
+---------------------------------------------+----------------+
; Resource                                    ; Usage          ;
+---------------------------------------------+----------------+
; Estimate of Logic utilization (ALMs needed) ; 19             ;
;                                             ;                ;
; Combinational ALUT usage for logic          ; 38             ;
;     -- 7 input functions                    ; 0              ;
;     -- 6 input functions                    ; 0              ;
;     -- 5 input functions                    ; 0              ;
;     -- 4 input functions                    ; 0              ;
;     -- <=3 input functions                  ; 38             ;
;                                             ;                ;
; Dedicated logic registers                   ; 32             ;
;                                             ;                ;
; I/O pins                                    ; 24             ;
;                                             ;                ;
; Total DSP Blocks                            ; 0              ;
;                                             ;                ;
; Maximum fan-out node                        ; CLOCK_50~input ;
; Maximum fan-out                             ; 32             ;
; Total fan-out                               ; 174            ;
; Average fan-out                             ; 1.47           ;
+---------------------------------------------+----------------+


+--------------------------------------------------------------------------------------------------------------------------------------------------------------------------------------------------------------------------------------------------------+
; Analysis & Synthesis Resource Utilization by Entity                                                                                                                                                                                                    ;
+-----------------------------------+---------------------+---------------------------+-------------------+------------+------+--------------+-----------------------------------------------------------------------------+--------------+--------------+
; Compilation Hierarchy Node        ; Combinational ALUTs ; Dedicated Logic Registers ; Block Memory Bits ; DSP Blocks ; Pins ; Virtual Pins ; Full Hierarchy Name                                                         ; Entity Name  ; Library Name ;
+-----------------------------------+---------------------+---------------------------+-------------------+------------+------+--------------+-----------------------------------------------------------------------------+--------------+--------------+
; |Actividad1                       ; 38 (2)              ; 32 (0)                    ; 0                 ; 0          ; 24   ; 0            ; |Actividad1                                                                 ; Actividad1   ; work         ;
;    |multiplexor:m1|               ; 4 (0)               ; 0 (0)                     ; 0                 ; 0          ; 0    ; 0            ; |Actividad1|multiplexor:m1                                                  ; multiplexor  ; work         ;
;       |lpm_mux:LPM_MUX_component| ; 4 (0)               ; 0 (0)                     ; 0                 ; 0          ; 0    ; 0            ; |Actividad1|multiplexor:m1|lpm_mux:LPM_MUX_component                        ; lpm_mux      ; work         ;
;          |mux_sjc:auto_generated| ; 4 (4)               ; 0 (0)                     ; 0                 ; 0          ; 0    ; 0            ; |Actividad1|multiplexor:m1|lpm_mux:LPM_MUX_component|mux_sjc:auto_generated ; mux_sjc      ; work         ;
;    |temporizador:t1|              ; 32 (32)             ; 32 (32)                   ; 0                 ; 0          ; 0    ; 0            ; |Actividad1|temporizador:t1                                                 ; temporizador ; work         ;
+-----------------------------------+---------------------+---------------------------+-------------------+------------+------+--------------+-----------------------------------------------------------------------------+--------------+--------------+
Note: For table entries with two numbers listed, the numbers in parentheses indicate the number of resources of the given type used by the specific entity alone. The numbers listed outside of parentheses indicate the total resources of the given type used by the specific entity and all of its sub-entities in the hierarchy.


+--------------------------------------------------------------------------------------------------------------+
; Analysis & Synthesis IP Cores Summary                                                                        ;
+--------+--------------+---------+--------------+--------------+----------------------------+-----------------+
; Vendor ; IP Core Name ; Version ; Release Date ; License Type ; Entity Instance            ; IP Include File ;
+--------+--------------+---------+--------------+--------------+----------------------------+-----------------+
; Altera ; LPM_MUX      ; 16.0    ; N/A          ; N/A          ; |Actividad1|multiplexor:m1 ; multiplexor.v   ;
+--------+--------------+---------+--------------+--------------+----------------------------+-----------------+


+------------------------------------------------------+
; General Register Statistics                          ;
+----------------------------------------------+-------+
; Statistic                                    ; Value ;
+----------------------------------------------+-------+
; Total registers                              ; 32    ;
; Number of registers using Synchronous Clear  ; 0     ;
; Number of registers using Synchronous Load   ; 0     ;
; Number of registers using Asynchronous Clear ; 0     ;
; Number of registers using Asynchronous Load  ; 0     ;
; Number of registers using Clock Enable       ; 0     ;
; Number of registers using Preset             ; 0     ;
+----------------------------------------------+-------+


+---------------------------------------------------------------------------------------+
; Parameter Settings for User Entity Instance: multiplexor:m1|lpm_mux:LPM_MUX_component ;
+------------------------+-----------+--------------------------------------------------+
; Parameter Name         ; Value     ; Type                                             ;
+------------------------+-----------+--------------------------------------------------+
; AUTO_CARRY_CHAINS      ; ON        ; AUTO_CARRY                                       ;
; IGNORE_CARRY_BUFFERS   ; OFF       ; IGNORE_CARRY                                     ;
; AUTO_CASCADE_CHAINS    ; ON        ; AUTO_CASCADE                                     ;
; IGNORE_CASCADE_BUFFERS ; OFF       ; IGNORE_CASCADE                                   ;
; LPM_WIDTH              ; 4         ; Signed Integer                                   ;
; LPM_SIZE               ; 2         ; Signed Integer                                   ;
; LPM_WIDTHS             ; 1         ; Signed Integer                                   ;
; LPM_PIPELINE           ; 0         ; Untyped                                          ;
; CBXI_PARAMETER         ; mux_sjc   ; Untyped                                          ;
; DEVICE_FAMILY          ; Cyclone V ; Untyped                                          ;
+------------------------+-----------+--------------------------------------------------+
Note: In order to hide this table in the UI and the text report file, please set the "Show Parameter Settings in Synthesis Report" option in "Analysis and Synthesis Settings -> More Settings" to "Off".


+-------------------------------------------------------------------------------------------------------------------------+
; Port Connectivity Checks: "temporizador:t1"                                                                             ;
+---------------+--------+----------+-------------------------------------------------------------------------------------+
; Port          ; Type   ; Severity ; Details                                                                             ;
+---------------+--------+----------+-------------------------------------------------------------------------------------+
; salida[23..0] ; Output ; Info     ; Connected to dangling logic. Logic that only feeds a dangling port will be removed. ;
+---------------+--------+----------+-------------------------------------------------------------------------------------+


+-----------------------------------------------------+
; Post-Synthesis Netlist Statistics for Top Partition ;
+-----------------------+-----------------------------+
; Type                  ; Count                       ;
+-----------------------+-----------------------------+
; arriav_ff             ; 32                          ;
;     plain             ; 32                          ;
; arriav_lcell_comb     ; 40                          ;
;     arith             ; 31                          ;
;         1 data inputs ; 30                          ;
;         2 data inputs ; 1                           ;
;     normal            ; 9                           ;
;         0 data inputs ; 1                           ;
;         1 data inputs ; 2                           ;
;         2 data inputs ; 2                           ;
;         3 data inputs ; 4                           ;
; boundary_port         ; 24                          ;
;                       ;                             ;
; Max LUT depth         ; 4.00                        ;
; Average LUT depth     ; 2.74                        ;
+-----------------------+-----------------------------+


+-------------------------------+
; Elapsed Time Per Partition    ;
+----------------+--------------+
; Partition Name ; Elapsed Time ;
+----------------+--------------+
; Top            ; 00:00:02     ;
+----------------+--------------+


+-------------------------------+
; Analysis & Synthesis Messages ;
+-------------------------------+
Info: *******************************************************************
Info: Running Quartus Prime Analysis & Synthesis
    Info: Version 18.1.0 Build 625 09/12/2018 SJ Lite Edition
    Info: Processing started: Tue Nov 27 15:12:18 2018
Info: Command: quartus_map --read_settings_files=on --write_settings_files=off Actividad1 -c Actividad1
Warning (18236): Number of processors has not been specified which may cause overloading on shared machines.  Set the global assignment NUM_PARALLEL_PROCESSORS in your QSF to an appropriate value for best performance.
Info (20030): Parallel compilation is enabled and will use 2 of the 2 processors detected
Info (12021): Found 1 design units, including 1 entities, in source file temporizador.v
    Info (12023): Found entity 1: temporizador File: D:/Kinacho/Embebidos/Repositorio/Laboratorio-4/Actividad_1/Temporizador.v Line: 1
Info (12021): Found 1 design units, including 1 entities, in source file multiplexor.v
    Info (12023): Found entity 1: multiplexor File: D:/Kinacho/Embebidos/Repositorio/Laboratorio-4/Actividad_1/multiplexor.v Line: 40
Warning (12125): Using design file actividad1.v, which is not specified as a design file for the current project, but contains definitions for 1 design units and 1 entities in project
    Info (12023): Found entity 1: Actividad1 File: D:/Kinacho/Embebidos/Repositorio/Laboratorio-4/Actividad_1/actividad1.v Line: 6
Info (12127): Elaborating entity "Actividad1" for the top level hierarchy
Warning (10034): Output port "LEDR[5..3]" at actividad1.v(15) has no driver File: D:/Kinacho/Embebidos/Repositorio/Laboratorio-4/Actividad_1/actividad1.v Line: 15
Info (12128): Elaborating entity "temporizador" for hierarchy "temporizador:t1" File: D:/Kinacho/Embebidos/Repositorio/Laboratorio-4/Actividad_1/actividad1.v Line: 39
Info (12128): Elaborating entity "multiplexor" for hierarchy "multiplexor:m1" File: D:/Kinacho/Embebidos/Repositorio/Laboratorio-4/Actividad_1/actividad1.v Line: 46
Info (12128): Elaborating entity "lpm_mux" for hierarchy "multiplexor:m1|lpm_mux:LPM_MUX_component" File: D:/Kinacho/Embebidos/Repositorio/Laboratorio-4/Actividad_1/multiplexor.v Line: 69
Info (12130): Elaborated megafunction instantiation "multiplexor:m1|lpm_mux:LPM_MUX_component" File: D:/Kinacho/Embebidos/Repositorio/Laboratorio-4/Actividad_1/multiplexor.v Line: 69
Info (12133): Instantiated megafunction "multiplexor:m1|lpm_mux:LPM_MUX_component" with the following parameter: File: D:/Kinacho/Embebidos/Repositorio/Laboratorio-4/Actividad_1/multiplexor.v Line: 69
    Info (12134): Parameter "lpm_size" = "2"
    Info (12134): Parameter "lpm_type" = "LPM_MUX"
    Info (12134): Parameter "lpm_width" = "4"
    Info (12134): Parameter "lpm_widths" = "1"
Info (12021): Found 1 design units, including 1 entities, in source file db/mux_sjc.tdf
    Info (12023): Found entity 1: mux_sjc File: D:/Kinacho/Embebidos/Repositorio/Laboratorio-4/Actividad_1/db/mux_sjc.tdf Line: 22
Info (12128): Elaborating entity "mux_sjc" for hierarchy "multiplexor:m1|lpm_mux:LPM_MUX_component|mux_sjc:auto_generated" File: d:/programs/intelfpga_lite/18.1/quartus/libraries/megafunctions/lpm_mux.tdf Line: 86
Warning (13024): Output pins are stuck at VCC or GND
    Warning (13410): Pin "LEDR[3]" is stuck at GND File: D:/Kinacho/Embebidos/Repositorio/Laboratorio-4/Actividad_1/actividad1.v Line: 15
    Warning (13410): Pin "LEDR[4]" is stuck at GND File: D:/Kinacho/Embebidos/Repositorio/Laboratorio-4/Actividad_1/actividad1.v Line: 15
    Warning (13410): Pin "LEDR[5]" is stuck at GND File: D:/Kinacho/Embebidos/Repositorio/Laboratorio-4/Actividad_1/actividad1.v Line: 15
Info (286030): Timing-Driven Synthesis is running
Info (16010): Generating hard_block partition "hard_block:auto_generated_inst"
    Info (16011): Adding 0 node(s), including 0 DDIO, 0 PLL, 0 transceiver and 0 LCELL
Warning (21074): Design contains 8 input pin(s) that do not drive logic
    Warning (15610): No output dependent on input pin "CLOCK2_50" File: D:/Kinacho/Embebidos/Repositorio/Laboratorio-4/Actividad_1/actividad1.v Line: 10
    Warning (15610): No output dependent on input pin "CLOCK3_50" File: D:/Kinacho/Embebidos/Repositorio/Laboratorio-4/Actividad_1/actividad1.v Line: 11
    Warning (15610): No output dependent on input pin "CLOCK4_50" File: D:/Kinacho/Embebidos/Repositorio/Laboratorio-4/Actividad_1/actividad1.v Line: 12
    Warning (15610): No output dependent on input pin "SW[5]" File: D:/Kinacho/Embebidos/Repositorio/Laboratorio-4/Actividad_1/actividad1.v Line: 19
    Warning (15610): No output dependent on input pin "SW[6]" File: D:/Kinacho/Embebidos/Repositorio/Laboratorio-4/Actividad_1/actividad1.v Line: 19
    Warning (15610): No output dependent on input pin "SW[7]" File: D:/Kinacho/Embebidos/Repositorio/Laboratorio-4/Actividad_1/actividad1.v Line: 19
    Warning (15610): No output dependent on input pin "SW[8]" File: D:/Kinacho/Embebidos/Repositorio/Laboratorio-4/Actividad_1/actividad1.v Line: 19
    Warning (15610): No output dependent on input pin "SW[9]" File: D:/Kinacho/Embebidos/Repositorio/Laboratorio-4/Actividad_1/actividad1.v Line: 19
Info (21057): Implemented 62 device resources after synthesis - the final resource count might be different
    Info (21058): Implemented 14 input pins
    Info (21059): Implemented 10 output pins
    Info (21061): Implemented 38 logic cells
Info: Quartus Prime Analysis & Synthesis was successful. 0 errors, 16 warnings
    Info: Peak virtual memory: 667 megabytes
    Info: Processing ended: Tue Nov 27 15:12:42 2018
    Info: Elapsed time: 00:00:24
    Info: Total CPU time (on all processors): 00:00:47


